<mxfile host="app.diagrams.net" modified="2024-03-15T09:05:06.513Z" agent="Mozilla/5.0 (X11; Linux x86_64) AppleWebKit/537.36 (KHTML, like Gecko) Chrome/120.0.0.0 Safari/537.36" version="24.0.7" etag="eDZMGlKGCm3CAXy9SXso" type="gitlab">
  <diagram name="Page-1" id="OG4U0q2Jxa8H5sYVxXB7">
    <mxGraphModel>
      <root>
        <mxCell id="0" />
        <mxCell id="1" parent="0" />
      </root>
    </mxGraphModel>
  </diagram>
</mxfile>
